P-latest/simulation/qsim/P-6318373.msim.vcd
$comment
	File created using the following command:
		vcd file P-6318373.msim.vcd -direction
$end
$date
	Sat Jun 16 23:03:14 2018
$end
$version
	ModelSim Version 10.5b
$end
$timescale
	1ps
$end

$scope module state_machine_vlg_vec_tst $end
$var reg 10 ! block_size [9:0] $end
$var reg 1 " clock_i $end
$var reg 1 # lrq_i $end
$var reg 1 $ mode_i $end
$var reg 10 % result_addr [9:0] $end
$var reg 1 & run_i $end
$var reg 10 ' start_addr [9:0] $end
$var wire 1 ( addr_o [9] $end
$var wire 1 ) addr_o [8] $end
$var wire 1 * addr_o [7] $end
$var wire 1 + addr_o [6] $end
$var wire 1 , addr_o [5] $end
$var wire 1 - addr_o [4] $end
$var wire 1 . addr_o [3] $end
$var wire 1 / addr_o [2] $end
$var wire 1 0 addr_o [1] $end
$var wire 1 1 addr_o [0] $end
$var wire 1 2 clk_en_o $end
$var wire 1 3 lrq_o $end
$var wire 1 4 w_r_o $end

$scope module i1 $end
$var wire 1 5 gnd $end
$var wire 1 6 vcc $end
$var wire 1 7 unknown $end
$var tri1 1 8 devclrn $end
$var tri1 1 9 devpor $end
$var tri1 1 : devoe $end
$var wire 1 ; lrq_i~input_o $end
$var wire 1 < ~QUARTUS_CREATED_GND~I_combout $end
$var wire 1 = clock_i~input_o $end
$var wire 1 > clock_i~inputCLKENA0_outclk $end
$var wire 1 ? mode_i~input_o $end
$var wire 1 @ Selector4~2_combout $end
$var wire 1 A next_state.Ry_1200~combout $end
$var wire 1 B present_state.Ry~q $end
$var wire 1 C Selector23~0_combout $end
$var wire 1 D Add2~1_sumout $end
$var wire 1 E block_size[8]~input_o $end
$var wire 1 F run_i~input_o $end
$var wire 1 G block_size[4]~input_o $end
$var wire 1 H block_size[3]~input_o $end
$var wire 1 I Add2~2 $end
$var wire 1 J Add2~5_sumout $end
$var wire 1 K block_size[1]~input_o $end
$var wire 1 L Selector36~0_combout $end
$var wire 1 M Add2~6 $end
$var wire 1 N Add2~9_sumout $end
$var wire 1 O block_size[2]~input_o $end
$var wire 1 P Selector37~0_combout $end
$var wire 1 Q Add2~10 $end
$var wire 1 R Add2~13_sumout $end
$var wire 1 S Selector38~0_combout $end
$var wire 1 T Add2~14 $end
$var wire 1 U Add2~17_sumout $end
$var wire 1 V Selector39~0_combout $end
$var wire 1 W Add2~18 $end
$var wire 1 X Add2~21_sumout $end
$var wire 1 Y block_size[5]~input_o $end
$var wire 1 Z Selector40~0_combout $end
$var wire 1 [ Add2~22 $end
$var wire 1 \ Add2~25_sumout $end
$var wire 1 ] block_size[6]~input_o $end
$var wire 1 ^ Selector41~0_combout $end
$var wire 1 _ Add2~26 $end
$var wire 1 ` Add2~29_sumout $end
$var wire 1 a block_size[7]~input_o $end
$var wire 1 b Selector42~0_combout $end
$var wire 1 c Add2~30 $end
$var wire 1 d Add2~33_sumout $end
$var wire 1 e Selector43~0_combout $end
$var wire 1 f block_size[9]~input_o $end
$var wire 1 g Add2~34 $end
$var wire 1 h Add2~37_sumout $end
$var wire 1 i Selector44~0_combout $end
$var wire 1 j Equal0~1_combout $end
$var wire 1 k Selector23~4_combout $end
$var wire 1 l block_size[0]~input_o $end
$var wire 1 m Selector34~0_combout $end
$var wire 1 n Equal0~0_combout $end
$var wire 1 o Selector56~0_combout $end
$var wire 1 p next_state.Rw_1242~combout $end
$var wire 1 q present_state.Rw~q $end
$var wire 1 r next_state.Rb_1228~combout $end
$var wire 1 s present_state.Rb~q $end
$var wire 1 t Selector52~0_combout $end
$var wire 1 u next_state.Rx_1214~combout $end
$var wire 1 v present_state.Rx~q $end
$var wire 1 w Selector45~0_combout $end
$var wire 1 x next_state.Wy_1158~combout $end
$var wire 1 y present_state.Wy~feeder_combout $end
$var wire 1 z present_state.Wy~q $end
$var wire 1 { Selector57~0_combout $end
$var wire 1 | next_state.IDLE_1256~combout $end
$var wire 1 } present_state.IDLE~0_combout $end
$var wire 1 ~ present_state.IDLE~q $end
$var wire 1 !! u1|q~q $end
$var wire 1 "! Selector58~0_combout $end
$var wire 1 #! Selector49~0_combout $end
$var wire 1 $! next_state.Ww_1186~combout $end
$var wire 1 %! present_state.Ww~q $end
$var wire 1 &! next_state.Wb_1172~combout $end
$var wire 1 '! present_state.Wb~q $end
$var wire 1 (! WideOr9~combout $end
$var wire 1 )! Selector3~0_combout $end
$var wire 1 *! Selector4~0_combout $end
$var wire 1 +! Selector23~2_combout $end
$var wire 1 ,! Add1~1_sumout $end
$var wire 1 -! start_addr[0]~input_o $end
$var wire 1 .! Selector23~1_combout $end
$var wire 1 /! Selector23~3_combout $end
$var wire 1 0! Selector12~1_combout $end
$var wire 1 1! Add0~1_sumout $end
$var wire 1 2! result_addr[0]~input_o $end
$var wire 1 3! Selector12~0_combout $end
$var wire 1 4! Selector12~2_combout $end
$var wire 1 5! Selector4~1_combout $end
$var wire 1 6! start_addr[1]~input_o $end
$var wire 1 7! Add1~2 $end
$var wire 1 8! Add1~5_sumout $end
$var wire 1 9! Selector25~0_combout $end
$var wire 1 :! Add0~2 $end
$var wire 1 ;! Add0~5_sumout $end
$var wire 1 <! result_addr[1]~input_o $end
$var wire 1 =! Selector14~0_combout $end
$var wire 1 >! Selector2~0_combout $end
$var wire 1 ?! Add1~6 $end
$var wire 1 @! Add1~9_sumout $end
$var wire 1 A! start_addr[2]~input_o $end
$var wire 1 B! Selector26~0_combout $end
$var wire 1 C! Add0~6 $end
$var wire 1 D! Add0~9_sumout $end
$var wire 1 E! result_addr[2]~input_o $end
$var wire 1 F! Selector15~0_combout $end
$var wire 1 G! Selector0~0_combout $end
$var wire 1 H! Add1~10 $end
$var wire 1 I! Add1~13_sumout $end
$var wire 1 J! start_addr[3]~input_o $end
$var wire 1 K! Selector27~0_combout $end
$var wire 1 L! result_addr[3]~input_o $end
$var wire 1 M! Add0~10 $end
$var wire 1 N! Add0~13_sumout $end
$var wire 1 O! Selector16~0_combout $end
$var wire 1 P! Selector5~0_combout $end
$var wire 1 Q! start_addr[4]~input_o $end
$var wire 1 R! Add1~14 $end
$var wire 1 S! Add1~17_sumout $end
$var wire 1 T! Selector28~0_combout $end
$var wire 1 U! Add0~14 $end
$var wire 1 V! Add0~17_sumout $end
$var wire 1 W! result_addr[4]~input_o $end
$var wire 1 X! Selector17~0_combout $end
$var wire 1 Y! Selector6~0_combout $end
$var wire 1 Z! Add1~18 $end
$var wire 1 [! Add1~21_sumout $end
$var wire 1 \! start_addr[5]~input_o $end
$var wire 1 ]! Selector29~0_combout $end
$var wire 1 ^! Add0~18 $end
$var wire 1 _! Add0~21_sumout $end
$var wire 1 `! result_addr[5]~input_o $end
$var wire 1 a! Selector18~0_combout $end
$var wire 1 b! Selector7~0_combout $end
$var wire 1 c! Add1~22 $end
$var wire 1 d! Add1~25_sumout $end
$var wire 1 e! start_addr[6]~input_o $end
$var wire 1 f! Selector30~0_combout $end
$var wire 1 g! Add0~22 $end
$var wire 1 h! Add0~25_sumout $end
$var wire 1 i! result_addr[6]~input_o $end
$var wire 1 j! Selector19~0_combout $end
$var wire 1 k! Selector8~0_combout $end
$var wire 1 l! result_addr[7]~input_o $end
$var wire 1 m! Add0~26 $end
$var wire 1 n! Add0~29_sumout $end
$var wire 1 o! Selector20~0_combout $end
$var wire 1 p! Add1~26 $end
$var wire 1 q! Add1~29_sumout $end
$var wire 1 r! start_addr[7]~input_o $end
$var wire 1 s! Selector31~0_combout $end
$var wire 1 t! Selector9~0_combout $end
$var wire 1 u! Add1~30 $end
$var wire 1 v! Add1~33_sumout $end
$var wire 1 w! start_addr[8]~input_o $end
$var wire 1 x! Selector32~0_combout $end
$var wire 1 y! Add0~30 $end
$var wire 1 z! Add0~33_sumout $end
$var wire 1 {! result_addr[8]~input_o $end
$var wire 1 |! Selector21~0_combout $end
$var wire 1 }! Selector10~0_combout $end
$var wire 1 ~! Add1~34 $end
$var wire 1 !" Add1~37_sumout $end
$var wire 1 "" start_addr[9]~input_o $end
$var wire 1 #" Selector33~0_combout $end
$var wire 1 $" result_addr[9]~input_o $end
$var wire 1 %" Add0~34 $end
$var wire 1 &" Add0~37_sumout $end
$var wire 1 '" Selector22~0_combout $end
$var wire 1 (" Selector11~0_combout $end
$var wire 1 )" lrq_o~0_combout $end
$var wire 1 *" addr_s [9] $end
$var wire 1 +" addr_s [8] $end
$var wire 1 ," addr_s [7] $end
$var wire 1 -" addr_s [6] $end
$var wire 1 ." addr_s [5] $end
$var wire 1 /" addr_s [4] $end
$var wire 1 0" addr_s [3] $end
$var wire 1 1" addr_s [2] $end
$var wire 1 2" addr_s [1] $end
$var wire 1 3" addr_s [0] $end
$var wire 1 4" cnt_sig_s [9] $end
$var wire 1 5" cnt_sig_s [8] $end
$var wire 1 6" cnt_sig_s [7] $end
$var wire 1 7" cnt_sig_s [6] $end
$var wire 1 8" cnt_sig_s [5] $end
$var wire 1 9" cnt_sig_s [4] $end
$var wire 1 :" cnt_sig_s [3] $end
$var wire 1 ;" cnt_sig_s [2] $end
$var wire 1 <" cnt_sig_s [1] $end
$var wire 1 =" cnt_sig_s [0] $end
$var wire 1 >" addr_r [9] $end
$var wire 1 ?" addr_r [8] $end
$var wire 1 @" addr_r [7] $end
$var wire 1 A" addr_r [6] $end
$var wire 1 B" addr_r [5] $end
$var wire 1 C" addr_r [4] $end
$var wire 1 D" addr_r [3] $end
$var wire 1 E" addr_r [2] $end
$var wire 1 F" addr_r [1] $end
$var wire 1 G" addr_r [0] $end
$var wire 1 H" addr_w [9] $end
$var wire 1 I" addr_w [8] $end
$var wire 1 J" addr_w [7] $end
$var wire 1 K" addr_w [6] $end
$var wire 1 L" addr_w [5] $end
$var wire 1 M" addr_w [4] $end
$var wire 1 N" addr_w [3] $end
$var wire 1 O" addr_w [2] $end
$var wire 1 P" addr_w [1] $end
$var wire 1 Q" addr_w [0] $end
$var wire 1 R" next_addr [9] $end
$var wire 1 S" next_addr [8] $end
$var wire 1 T" next_addr [7] $end
$var wire 1 U" next_addr [6] $end
$var wire 1 V" next_addr [5] $end
$var wire 1 W" next_addr [4] $end
$var wire 1 X" next_addr [3] $end
$var wire 1 Y" next_addr [2] $end
$var wire 1 Z" next_addr [1] $end
$var wire 1 [" next_addr [0] $end
$var wire 1 \" next_addr_r [9] $end
$var wire 1 ]" next_addr_r [8] $end
$var wire 1 ^" next_addr_r [7] $end
$var wire 1 _" next_addr_r [6] $end
$var wire 1 `" next_addr_r [5] $end
$var wire 1 a" next_addr_r [4] $end
$var wire 1 b" next_addr_r [3] $end
$var wire 1 c" next_addr_r [2] $end
$var wire 1 d" next_addr_r [1] $end
$var wire 1 e" next_addr_r [0] $end
$var wire 1 f" next_addr_w [9] $end
$var wire 1 g" next_addr_w [8] $end
$var wire 1 h" next_addr_w [7] $end
$var wire 1 i" next_addr_w [6] $end
$var wire 1 j" next_addr_w [5] $end
$var wire 1 k" next_addr_w [4] $end
$var wire 1 l" next_addr_w [3] $end
$var wire 1 m" next_addr_w [2] $end
$var wire 1 n" next_addr_w [1] $end
$var wire 1 o" next_addr_w [0] $end
$var wire 1 p" next_sig [9] $end
$var wire 1 q" next_sig [8] $end
$var wire 1 r" next_sig [7] $end
$var wire 1 s" next_sig [6] $end
$var wire 1 t" next_sig [5] $end
$var wire 1 u" next_sig [4] $end
$var wire 1 v" next_sig [3] $end
$var wire 1 w" next_sig [2] $end
$var wire 1 x" next_sig [1] $end
$var wire 1 y" next_sig [0] $end
$upscope $end
$upscope $end
$enddefinitions $end
#0
$dumpvars
b100101011 !
0"
x#
0$
b1001011000 %
0&
b0 '
01
00
0/
0.
0-
0,
0+
0*
0)
0(
02
13
04
05
16
x7
18
19
1:
x;
0<
0=
0>
0?
0@
0A
0B
1C
1D
1E
0F
0G
1H
0I
1J
1K
0L
0M
1N
0O
0P
0Q
1R
0S
0T
1U
0V
0W
1X
1Y
0Z
0[
1\
0]
0^
0_
1`
0a
0b
0c
1d
0e
0f
0g
1h
0i
1j
0k
1l
0m
1n
0o
0p
0q
0r
0s
1t
0u
0v
0w
0x
0y
0z
1{
1|
0}
0~
0!!
1"!
0#!
0$!
0%!
0&!
0'!
0(!
0)!
1*!
0+!
1,!
0-!
1.!
0/!
00!
11!
02!
13!
04!
05!
06!
07!
08!
09!
0:!
0;!
0<!
0=!
0>!
0?!
0@!
0A!
0B!
0C!
0D!
0E!
0F!
0G!
0H!
0I!
0J!
0K!
1L!
0M!
0N!
1O!
0P!
0Q!
0R!
0S!
0T!
0U!
0V!
1W!
1X!
0Y!
0Z!
0[!
0\!
0]!
0^!
0_!
0`!
0a!
0b!
0c!
0d!
0e!
0f!
0g!
0h!
1i!
1j!
0k!
0l!
0m!
0n!
0o!
0p!
0q!
0r!
0s!
0t!
0u!
0v!
0w!
0x!
0y!
0z!
0{!
0|!
0}!
0~!
0!"
0""
0#"
1$"
0%"
0&"
1'"
0("
1)"
03"
02"
01"
00"
0/"
0."
0-"
0,"
0+"
0*"
0="
0<"
0;"
0:"
09"
08"
07"
06"
05"
04"
0G"
0F"
0E"
0D"
0C"
0B"
0A"
0@"
0?"
0>"
0Q"
0P"
0O"
0N"
0M"
0L"
0K"
0J"
0I"
0H"
0["
0Z"
0Y"
0X"
0W"
0V"
0U"
0T"
0S"
0R"
0e"
0d"
0c"
0b"
0a"
0`"
0_"
0^"
0]"
0\"
0o"
0n"
0m"
0l"
0k"
0j"
0i"
0h"
0g"
0f"
0y"
0x"
0w"
0v"
0u"
0t"
0s"
0r"
0q"
0p"
$end
#25000
1"
1=
1>
#50000
1&
0"
1F
0=
0>
1)!
0{
1o
1m
1e
1Z
1S
1L
1x"
1v"
1q"
1y"
0|
1i"
1t"
1p
1f"
1k"
1l"
1k!
1P!
1Y!
1("
1}
1R"
1W"
1X"
1U"
#75000
1"
1=
1>
1H"
1K"
1M"
1N"
1!!
1q
1="
15"
18"
1:"
1<"
1*"
1-"
1/"
10"
1~
12
1.
1-
1+
1(
0n
1M
0J
1T
0R
1[
0X
0j
1g
0d
1I
0D
1N!
1V!
1h!
1&"
10!
1+!
0o
1r
1Q
0N
1W
0U
1_
0\
0h
1J
14!
0p
1R
1X
1c
0`
1o"
1d
15!
1["
#100000
0"
0=
0>
#125000
1"
1=
1>
1Q"
1s
0q
13"
11
03!
0*!
0t
1:!
01!
0)"
0r
03
1;!
0("
0k!
0Y!
0P!
05!
1u
0["
0X"
0W"
0U"
0R"
#150000
0"
0=
0>
#175000
1"
1=
1>
1v
0s
0*"
0-"
0/"
00"
03"
01
0.
0-
0+
0(
1t
0.!
1@
1A
1/!
0u
1e"
15!
1["
#200000
0"
0=
0>
#225000
1"
1=
1>
1G"
0v
1B
13"
11
0C
13!
1.!
1*!
0@
17!
0,!
18!
0A
1=!
04!
03!
0.!
0t
1k
0m
19!
0/!
0=!
14!
0o"
1n"
1u
0n"
1o"
0e"
1d"
0y"
1>!
05!
0["
1Z"
#250000
0"
0=
0>
#275000
1"
1=
1>
1F"
0G"
1v
0="
0B
12"
03"
01
10
1("
1k!
1Y!
1P!
0>!
15!
1C
0I
1D
0*!
1@
07!
1,!
1?!
08!
0J
0?!
18!
1@!
09!
1/!
1A
0("
0k!
0Y!
0P!
1>!
05!
1m
1t
0k
1["
0Z"
1X"
1W"
1U"
1R"
0@!
0m
1y"
1e"
0d"
1B!
19!
0u
0["
1Z"
0X"
0W"
0U"
0R"
1d"
1c"
0>!
15!
0y"
0B!
0c"
1G!
1>!
1["
0Z"
0G!
1Z"
1Y"
0Y"
#300000
0"
0=
0>
#325000
1"
1=
1>
1G"
0v
1B
13"
11
0C
13!
1.!
1*!
0@
17!
0,!
1?!
08!
0A
1=!
04!
03!
0.!
0t
1k
1@!
1m
0L
09!
0/!
0=!
14!
0o"
1n"
1u
0n"
1o"
0e"
0d"
0x"
1y"
1B!
1c"
0>!
05!
1G!
0["
0Z"
1Y"
#350000
0"
0=
0>
#375000
1"
1=
1>
1E"
0F"
0G"
1v
1="
0<"
0B
11"
02"
03"
01
00
1/
1("
1k!
1Y!
1P!
0G!
15!
1C
0M
1J
1I
0D
0*!
1@
07!
1,!
0?!
18!
1H!
0@!
0Q
1N
1M
0J
08!
0H!
1@!
1I!
0B!
19!
1/!
1A
0("
0k!
0Y!
0P!
1G!
05!
0m
1L
1t
0k
1["
0Y"
1X"
1W"
1U"
1R"
0R
1Q
0N
0I!
1m
0L
1x"
0y"
1e"
1d"
0c"
1K!
1B!
09!
0u
0["
1Y"
0X"
0W"
0U"
0R"
1R
0d"
1c"
1b"
0G!
1>!
15!
1y"
0x"
0K!
0b"
1P!
1G!
0>!
1["
1Z"
0Y"
0P!
0Z"
1Y"
1X"
0X"
#400000
0"
0=
0>
#425000
1"
1=
1>
1G"
0v
1B
13"
11
0C
13!
1.!
1*!
0@
17!
0,!
18!
0A
1=!
04!
03!
0.!
0t
1k
0m
19!
0/!
0=!
14!
0o"
1n"
1u
0n"
1o"
0e"
1d"
0y"
1>!
05!
0["
1Z"
#450000
0"
0=
0>
#475000
1"
1=
1>
1F"
0G"
1v
0="
0B
12"
03"
01
10
1("
1k!
1Y!
1P!
0G!
0>!
15!
1C
0I
1D
0*!
1@
07!
1,!
1?!
08!
0M
1J
0?!
18!
1H!
0@!
09!
1/!
1A
0("
0k!
0Y!
0P!
1G!
1>!
05!
1m
1t
0k
1["
0Z"
0Y"
1X"
1W"
1U"
1R"
0Q
1N
0H!
1@!
1I!
0m
1y"
1e"
0d"
0B!
19!
0u
0["
1Z"
1Y"
0X"
0W"
0U"
0R"
0R
0I!
1d"
0c"
0>!
15!
0y"
1K!
1B!
1c"
1b"
0G!
1>!
0K!
1["
0Z"
0b"
1P!
1G!
1Z"
0Y"
0P!
1Y"
1X"
0X"
#500000
0"
0=
0>
#525000
1"
1=
1>
1G"
0v
1B
13"
11
0C
13!
1.!
1*!
0@
17!
0,!
1?!
08!
0A
1=!
04!
03!
0.!
0t
1k
1H!
0@!
1m
0S
1P
1L
09!
0/!
0=!
14!
0o"
1n"
1u
1I!
0n"
1o"
0e"
0d"
1x"
1w"
0v"
1y"
0B!
0c"
0>!
05!
1K!
1b"
0G!
0["
0Z"
1P!
0Y"
1X"
#550000
0"
0=
0>
#575000
1"
1=
1>
1D"
0E"
0F"
0G"
1v
1="
0:"
1;"
1<"
0B
10"
01"
02"
03"
01
00
0/
1.
1("
1k!
1Y!
15!
1C
1M
0J
1Q
0N
0T
1R
1I
0D
0*!
1@
07!
1,!
0?!
18!
0H!
1@!
1R!
0I!
1N
1T
0R
0W
1U
1J
08!
0@!
0R!
1I!
1S!
0K!
1B!
19!
1/!
1A
0("
0k!
0Y!
05!
0m
1S
0P
0L
1t
0k
1["
1W"
1U"
1R"
1W
0U
0X
0S!
1m
0S
1P
1L
0x"
0w"
1v"
0y"
1e"
1d"
1c"
0b"
1T!
1K!
0B!
09!
0u
0["
0W"
0U"
0R"
1X
0d"
0c"
1b"
1a"
0P!
1G!
1>!
15!
1y"
0v"
1w"
1x"
0T!
0a"
1Y!
1P!
0G!
0>!
1["
1Z"
1Y"
0X"
0Y!
0Z"
0Y"
1X"
1W"
0W"
#600000
0"
0=
0>
#625000
1"
1=
1>
1G"
0v
1B
13"
11
0C
13!
1.!
1*!
0@
17!
0,!
18!
0A
1=!
04!
03!
0.!
0t
1k
0m
19!
0/!
0=!
14!
0o"
1n"
1u
0n"
1o"
0e"
1d"
0y"
1>!
05!
0["
1Z"
#650000
0"
0=
0>
#675000
1"
1=
1>
1F"
0G"
1v
0="
0B
12"
03"
01
10
1("
1k!
1Y!
0>!
15!
1C
0I
1D
0*!
1@
07!
1,!
1?!
08!
0J
0?!
18!
1@!
09!
1/!
1A
0("
0k!
0Y!
1>!
05!
1m
1t
0k
1["
0Z"
1W"
1U"
1R"
0@!
0m
1y"
1e"
0d"
1B!
19!
0u
0["
1Z"
0W"
0U"
0R"
1d"
1c"
0>!
15!
0y"
0B!
0c"
1G!
1>!
1["
0Z"
0G!
1Z"
1Y"
0Y"
#700000
0"
0=
0>
#725000
1"
1=
1>
1G"
0v
1B
13"
11
0C
13!
1.!
1*!
0@
17!
0,!
1?!
08!
0A
1=!
04!
03!
0.!
0t
1k
1@!
1m
0L
09!
0/!
0=!
14!
0o"
1n"
1u
0n"
1o"
0e"
0d"
0x"
1y"
1B!
1c"
0>!
05!
1G!
0["
0Z"
1Y"
#750000
0"
0=
0>
#775000
1"
1=
1>
1E"
0F"
0G"
1v
1="
0<"
0B
11"
02"
03"
01
00
1/
1("
1k!
1Y!
0G!
15!
1C
0M
1J
1I
0D
0*!
1@
07!
1,!
0?!
18!
1H!
0@!
0N
1M
0J
08!
0H!
1@!
1R!
0I!
0B!
19!
1/!
1A
0("
0k!
0Y!
1G!
05!
0m
1L
1t
0k
1["
0Y"
1W"
1U"
1R"
1N
0R!
1I!
1S!
1m
0L
1x"
0y"
1e"
1d"
0c"
0K!
1B!
09!
0u
0["
1Y"
0W"
0U"
0R"
0S!
0d"
1c"
0b"
0G!
1>!
15!
1y"
0x"
1T!
1K!
1b"
1a"
0P!
1G!
0>!
0T!
1["
1Z"
0Y"
0a"
1Y!
1P!
0Z"
1Y"
0X"
0Y!
1X"
1W"
0W"
#800000
0"
0=
0>
#825000
1"
1=
1>
1G"
0v
1B
13"
11
0C
13!
1.!
1*!
0@
17!
0,!
18!
0A
1=!
04!
03!
0.!
0t
1k
0m
19!
0/!
0=!
14!
0o"
1n"
1u
0n"
1o"
0e"
1d"
0y"
1>!
05!
0["
1Z"
#850000
0"
0=
0>
#875000
1"
1=
1>
1F"
0G"
1v
0="
0B
12"
03"
01
10
1("
1k!
1Y!
0G!
0>!
15!
1C
0I
1D
0*!
1@
07!
1,!
1?!
08!
0M
1J
0?!
18!
1H!
0@!
09!
1/!
1A
0("
0k!
0Y!
1G!
1>!
05!
1m
1t
0k
1["
0Z"
0Y"
1W"
1U"
1R"
0N
0H!
1@!
1R!
0I!
0m
1y"
1e"
0d"
0B!
19!
0u
0["
1Z"
1Y"
0W"
0U"
0R"
0R!
1I!
1S!
1d"
0c"
0>!
15!
0y"
0K!
1B!
0S!
1c"
0b"
0G!
1>!
1T!
1K!
1["
0Z"
1b"
1a"
0P!
1G!
0T!
1Z"
0Y"
0a"
1Y!
1P!
1Y"
0X"
0Y!
1X"
1W"
0W"
#900000
0"
0=
0>
#925000
1"
1=
1>
1G"
0v
1B
13"
11
0C
13!
1.!
1*!
0@
17!
0,!
1?!
08!
0A
1=!
04!
03!
0.!
0t
1k
1H!
0@!
1m
0P
1L
09!
0/!
0=!
14!
0o"
1n"
1u
1R!
0I!
0n"
1o"
0e"
0d"
1x"
0w"
1y"
0B!
1S!
0c"
0>!
05!
0K!
0b"
0G!
1T!
0["
0Z"
1a"
0P!
0Y"
1Y!
0X"
1W"
#950000
0"
0=
0>
#975000
1"
1=
1>
1C"
0D"
0E"
0F"
0G"
1v
1="
0;"
1<"
0B
1/"
00"
01"
02"
03"
01
00
0/
0.
1-
1("
1k!
1P!
15!
1C
1M
0J
0Q
1N
1I
0D
0*!
1@
07!
1,!
0?!
18!
0H!
1@!
0R!
1I!
1Z!
0S!
1Q
0N
0T
1R
1J
08!
0@!
0I!
0Z!
1S!
1[!
0T!
1K!
1B!
19!
1/!
1A
0("
0k!
0P!
05!
0m
1P
0L
1t
0k
1["
1X"
1U"
1R"
1T
0R
0W
1U
0[!
1m
0P
1L
0x"
1w"
0y"
1e"
1d"
1c"
1b"
0a"
1]!
1T!
0K!
0B!
09!
0u
0["
0X"
0U"
0R"
1W
0U
0X
0d"
0c"
0b"
1a"
0Y!
1P!
1G!
1>!
15!
1y"
0w"
1x"
0]!
1`"
1X
1Y!
0P!
0G!
0>!
1b!
0`"
1["
1Z"
1Y"
1X"
0W"
0b!
1V"
0Z"
0Y"
0X"
1W"
0V"
#1000000
0"
0=
0>
#1025000
1"
1=
1>
1G"
0v
1B
13"
11
0C
13!
1.!
1*!
0@
17!
0,!
18!
0A
1=!
04!
03!
0.!
0t
1k
0m
19!
0/!
0=!
14!
0o"
1n"
1u
0n"
1o"
0e"
1d"
0y"
1>!
05!
0["
1Z"
#1050000
0"
0=
0>
#1075000
1"
1=
1>
1F"
0G"
1v
0="
0B
12"
03"
01
10
1("
1k!
1P!
0>!
15!
1C
0I
1D
0*!
1@
07!
1,!
1?!
08!
0J
0?!
18!
1@!
09!
1/!
1A
0("
0k!
0P!
1>!
05!
1m
1t
0k
1["
0Z"
1X"
1U"
1R"
0@!
0m
1y"
1e"
0d"
1B!
19!
0u
0["
1Z"
0X"
0U"
0R"
1d"
1c"
0>!
15!
0y"
0B!
0c"
1G!
1>!
1["
0Z"
0G!
1Z"
1Y"
0Y"
#1100000
0"
0=
0>
#1125000
1"
1=
1>
1G"
0v
1B
13"
11
0C
13!
1.!
1*!
0@
17!
0,!
1?!
08!
0A
1=!
04!
03!
0.!
0t
1k
1@!
1m
0L
09!
0/!
0=!
14!
0o"
1n"
1u
0n"
1o"
0e"
0d"
0x"
1y"
1B!
1c"
0>!
05!
1G!
0["
0Z"
1Y"
#1150000
0"
0=
0>
#1175000
1"
1=
1>
1E"
0F"
0G"
1v
1="
0<"
0B
11"
02"
03"
01
00
1/
1("
1k!
1P!
0G!
15!
1C
0M
1J
1I
0D
0*!
1@
07!
1,!
0?!
18!
1H!
0@!
0Q
1N
1M
0J
08!
0H!
1@!
1I!
0B!
19!
1/!
1A
0("
0k!
0P!
1G!
05!
0m
1L
1t
0k
1["
0Y"
1X"
1U"
1R"
0T
1R
1Q
0N
0I!
1m
0L
1x"
0y"
1e"
1d"
0c"
1K!
1B!
09!
0u
0["
1Y"
0X"
0U"
0R"
0W
1U
1T
0R
0d"
1c"
1b"
0G!
1>!
15!
1y"
0x"
0K!
0X
1W
0U
0b"
1P!
1G!
0>!
1["
1Z"
0Y"
1X
0P!
0Z"
1Y"
1X"
0X"
#1200000
0"
0=
0>
#1225000
1"
1=
1>
1G"
0v
1B
13"
11
0C
13!
1.!
1*!
0@
17!
0,!
18!
0A
1=!
04!
03!
0.!
0t
1k
0m
19!
0/!
0=!
14!
0o"
1n"
1u
0n"
1o"
0e"
1d"
0y"
1>!
05!
0["
1Z"
#1250000
0"
0=
0>
#1275000
1"
1=
1>
1F"
0G"
1v
0="
0B
12"
03"
01
10
1("
1k!
1P!
0G!
0>!
15!
1C
0I
1D
0*!
1@
07!
1,!
1?!
08!
0M
1J
0?!
18!
1H!
0@!
09!
1/!
1A
0("
0k!
0P!
1G!
1>!
05!
1m
1t
0k
1["
0Z"
0Y"
1X"
1U"
1R"
0Q
1N
0H!
1@!
1I!
0m
1y"
1e"
0d"
0B!
19!
0u
0["
1Z"
1Y"
0X"
0U"
0R"
0T
1R
0I!
1d"
0c"
0>!
15!
0y"
1K!
1B!
0W
1U
1c"
1b"
0G!
1>!
0K!
1["
0Z"
0X
0b"
1P!
1G!
1Z"
0Y"
0P!
1Y"
1X"
0X"
#1300000
0"
0=
0>
#1325000
1"
1=
1>
1G"
0v
1B
13"
11
0C
13!
1.!
1*!
0@
17!
0,!
1?!
08!
0A
1=!
04!
03!
0.!
0t
1k
1H!
0@!
1m
0Z
1V
1S
1P
1L
09!
0/!
0=!
14!
0o"
1n"
1u
1I!
0n"
1o"
0e"
0d"
1x"
1w"
1v"
1u"
1y"
0B!
0t"
0c"
0>!
05!
1K!
1b"
0G!
0["
0Z"
1P!
0Y"
1X"
#1350000
0"
0=
0>
#1375000
1"
1=
1>
1D"
0E"
0F"
0G"
1v
1="
08"
19"
1:"
1;"
1<"
0B
10"
01"
02"
03"
01
00
0/
1.
1("
1k!
15!
1C
1M
0J
1Q
0N
1T
0R
1W
0U
0[
1X
1I
0D
0*!
1@
07!
1,!
0?!
18!
0H!
1@!
1R!
0I!
1N
1R
1U
1[
0X
0_
1\
1J
08!
0@!
0R!
1I!
1Z!
0S!
0K!
1B!
19!
1/!
1A
0("
0k!
05!
0m
1Z
0V
0S
0P
0L
1t
0k
1["
1U"
1R"
1_
0\
0c
1`
0Z!
1S!
1[!
1m
0Z
1V
1S
1P
1L
0x"
0w"
0v"
0u"
0y"
1e"
1d"
1c"
0b"
0T!
1K!
0B!
09!
0u
1t"
0["
0U"
0R"
1c
0`
0d
0[!
0d"
0c"
1b"
0a"
0P!
1G!
1>!
15!
1y"
1u"
1v"
1w"
1x"
1]!
1T!
0t"
1d
1a"
0Y!
1P!
0G!
0>!
0]!
1`"
1["
1Z"
1Y"
0X"
1Y!
1b!
0`"
0Z"
0Y"
1X"
0W"
0b!
1V"
1W"
0V"
#1400000
0"
0=
0>
#1425000
1"
1=
1>
1G"
0v
1B
13"
11
0C
13!
1.!
1*!
0@
17!
0,!
18!
0A
1=!
04!
03!
0.!
0t
1k
0m
19!
0/!
0=!
14!
0o"
1n"
1u
0n"
1o"
0e"
1d"
0y"
1>!
05!
0["
1Z"
#1450000
0"
0=
0>
#1475000
1"
1=
1>
1F"
0G"
1v
0="
0B
12"
03"
01
10
1("
1k!
0>!
15!
1C
0I
1D
0*!
1@
07!
1,!
1?!
08!
0J
0?!
18!
1@!
09!
1/!
1A
0("
0k!
1>!
05!
1m
1t
0k
1["
0Z"
1U"
1R"
0@!
0m
1y"
1e"
0d"
1B!
19!
0u
0["
1Z"
0U"
0R"
1d"
1c"
0>!
15!
0y"
0B!
0c"
1G!
1>!
1["
0Z"
0G!
1Z"
1Y"
0Y"
#1500000
0"
0=
0>
